^C:\USERS\YODJI\SOURCE\REPOS\UESTARTPROJECT\UESTARTPROJECT.CPP
C:\USERS\YODJI\SOURCE\REPOS\UESTARTPROJECT\DEBUG\VC142.PDB
C:\USERS\YODJI\SOURCE\REPOS\UESTARTPROJECT\DEBUG\VC142.IDB
C:\USERS\YODJI\SOURCE\REPOS\UESTARTPROJECT\DEBUG\UESTARTPROJECT.OBJ
